{
	"openapi": "3.0.0",
	"info": {
		"version": "v1.0.0",
		"title": "Swagger Seat Sync Project",
		"description": "Implementation of Swagger with TypeScript"
	},
	"servers": [
		{
			"url": "http://localhost:5000/api",
			"description": ""
		}
	],
	"paths": {
		"/user/register": {
			"post": {
				"description": "",
				"responses": {
					"default": {
						"description": ""
					}
				}
			}
		},
		"/user/login": {
			"post": {
				"description": "",
				"responses": {
					"default": {
						"description": ""
					}
				}
			}
		},
		"/user/update": {
			"post": {
				"description": "",
				"parameters": [
					{
						"name": "x-access-token",
						"in": "header",
						"schema": {
							"type": "string"
						}
					},
					{
						"name": "token",
						"in": "query",
						"schema": {
							"type": "string"
						}
					}
				],
				"responses": {
					"400": {
						"description": "Bad Request"
					}
				},
				"requestBody": {
					"content": {
						"application/json": {
							"schema": {
								"type": "object",
								"properties": {
									"token": {
										"example": "any"
									}
								}
							},
							"example": {
								"_id": "string",
								"email": "string",
								"firstName": "string",
								"middleName": "string",
								"lastName": "string",
								"pastExperience": "number | string",
								"domain": "string",
								"department": "string",
								"position": "string",
								"project": "string",
								"role": "string",
								"phone": "number | string"
							}
						}
					}
				}
			}
		},
		"/admin/register": {
			"post": {
				"description": "",
				"responses": {
					"default": {
						"description": ""
					}
				}
			}
		},
		"/admin/all-user": {
			"get": {
				"description": "",
				"parameters": [
					{
						"name": "x-access-token",
						"in": "header",
						"schema": {
							"type": "string"
						}
					},
					{
						"name": "token",
						"in": "query",
						"schema": {
							"type": "string"
						}
					}
				],
				"responses": {
					"400": {
						"description": "Bad Request"
					}
				}
			}
		},
		"/admin/all-location": {
			"get": {
				"description": "",
				"parameters": [
					{
						"name": "x-access-token",
						"in": "header",
						"schema": {
							"type": "string"
						}
					},
					{
						"name": "token",
						"in": "query",
						"schema": {
							"type": "string"
						}
					}
				],
				"responses": {
					"400": {
						"description": "Bad Request"
					}
				}
			}
		},
		"/admin/create-location": {
			"post": {
				"description": "",
				"parameters": [
					{
						"name": "x-access-token",
						"in": "header",
						"schema": {
							"type": "string"
						}
					},
					{
						"name": "token",
						"in": "query",
						"schema": {
							"type": "string"
						}
					}
				],
				"responses": {
					"400": {
						"description": "Bad Request"
					}
				},
				"requestBody": {
					"content": {
						"application/json": {
							"schema": {
								"type": "object",
								"properties": {
									"token": {
										"example": "any"
									}
								}
							}
						}
					}
				}
			}
		},
		"/admin/delete-user": {
			"post": {
				"description": "",
				"parameters": [
					{
						"name": "x-access-token",
						"in": "header",
						"schema": {
							"type": "string"
						}
					},
					{
						"name": "token",
						"in": "query",
						"schema": {
							"type": "string"
						}
					}
				],
				"responses": {
					"400": {
						"description": "Bad Request"
					}
				},
				"requestBody": {
					"content": {
						"application/json": {
							"schema": {
								"type": "object",
								"properties": {
									"token": {
										"example": "any"
									}
								}
							}
						}
					}
				}
			}
		},
		"/admin/delete-location": {
			"post": {
				"description": "",
				"parameters": [
					{
						"name": "x-access-token",
						"in": "header",
						"schema": {
							"type": "string"
						}
					},
					{
						"name": "token",
						"in": "query",
						"schema": {
							"type": "string"
						}
					}
				],
				"responses": {
					"400": {
						"description": "Bad Request"
					}
				},
				"requestBody": {
					"content": {
						"application/json": {
							"schema": {
								"type": "object",
								"properties": {
									"token": {
										"example": "any"
									}
								}
							}
						}
					}
				}
			}
		},
		"/admin/location-update": {
			"post": {
				"description": "",
				"parameters": [
					{
						"name": "x-access-token",
						"in": "header",
						"schema": {
							"type": "string"
						}
					},
					{
						"name": "token",
						"in": "query",
						"schema": {
							"type": "string"
						}
					}
				],
				"responses": {
					"400": {
						"description": "Bad Request"
					}
				},
				"requestBody": {
					"content": {
						"application/json": {
							"schema": {
								"type": "object",
								"properties": {
									"token": {
										"example": "any"
									}
								}
							}
						}
					}
				}
			}
		},
		"/admin/create-floor": {
			"post": {
				"description": "",
				"parameters": [
					{
						"name": "x-access-token",
						"in": "header",
						"schema": {
							"type": "string"
						}
					},
					{
						"name": "token",
						"in": "query",
						"schema": {
							"type": "string"
						}
					}
				],
				"responses": {
					"400": {
						"description": "Bad Request"
					}
				},
				"requestBody": {
					"content": {
						"application/json": {
							"schema": {
								"type": "object",
								"properties": {
									"token": {
										"example": "any"
									}
								}
							}
						}
					}
				}
			}
		},
		"/admin/update-floor": {
			"post": {
				"description": "",
				"parameters": [
					{
						"name": "x-access-token",
						"in": "header",
						"schema": {
							"type": "string"
						}
					},
					{
						"name": "token",
						"in": "query",
						"schema": {
							"type": "string"
						}
					}
				],
				"responses": {
					"400": {
						"description": "Bad Request"
					}
				},
				"requestBody": {
					"content": {
						"application/json": {
							"schema": {
								"type": "object",
								"properties": {
									"token": {
										"example": "any"
									}
								}
							}
						}
					}
				}
			}
		},
		"/admin/delete-floor": {
			"post": {
				"description": "",
				"parameters": [
					{
						"name": "x-access-token",
						"in": "header",
						"schema": {
							"type": "string"
						}
					},
					{
						"name": "token",
						"in": "query",
						"schema": {
							"type": "string"
						}
					}
				],
				"responses": {
					"400": {
						"description": "Bad Request"
					}
				},
				"requestBody": {
					"content": {
						"application/json": {
							"schema": {
								"type": "object",
								"properties": {
									"token": {
										"example": "any"
									}
								}
							}
						}
					}
				}
			}
		},
		"/admin/all-floor/{location}": {
			"get": {
				"description": "",
				"parameters": [
					{
						"name": "location",
						"in": "path",
						"required": true,
						"schema": {
							"type": "string"
						}
					},
					{
						"name": "x-access-token",
						"in": "header",
						"schema": {
							"type": "string"
						}
					},
					{
						"name": "token",
						"in": "query",
						"schema": {
							"type": "string"
						}
					}
				],
				"responses": {
					"400": {
						"description": "Bad Request"
					}
				}
			}
		},
		"/admin/all-floor": {
			"get": {
				"description": "",
				"parameters": [
					{
						"name": "x-access-token",
						"in": "header",
						"schema": {
							"type": "string"
						}
					},
					{
						"name": "token",
						"in": "query",
						"schema": {
							"type": "string"
						}
					}
				],
				"responses": {
					"400": {
						"description": "Bad Request"
					}
				}
			}
		},
		"/admin/all-wings": {
			"get": {
				"description": "",
				"parameters": [
					{
						"name": "x-access-token",
						"in": "header",
						"schema": {
							"type": "string"
						}
					},
					{
						"name": "token",
						"in": "query",
						"schema": {
							"type": "string"
						}
					}
				],
				"responses": {
					"400": {
						"description": "Bad Request"
					}
				}
			}
		},
		"/admin/all-wings/{location}/{floor}": {
			"get": {
				"description": "",
				"parameters": [
					{
						"name": "location",
						"in": "path",
						"required": true,
						"schema": {
							"type": "string"
						}
					},
					{
						"name": "floor",
						"in": "path",
						"required": true,
						"schema": {
							"type": "string"
						}
					},
					{
						"name": "x-access-token",
						"in": "header",
						"schema": {
							"type": "string"
						}
					},
					{
						"name": "token",
						"in": "query",
						"schema": {
							"type": "string"
						}
					}
				],
				"responses": {
					"400": {
						"description": "Bad Request"
					}
				}
			}
		},
		"/admin/update-wing": {
			"post": {
				"description": "",
				"parameters": [
					{
						"name": "x-access-token",
						"in": "header",
						"schema": {
							"type": "string"
						}
					},
					{
						"name": "token",
						"in": "query",
						"schema": {
							"type": "string"
						}
					}
				],
				"responses": {
					"400": {
						"description": "Bad Request"
					}
				},
				"requestBody": {
					"content": {
						"application/json": {
							"schema": {
								"type": "object",
								"properties": {
									"token": {
										"example": "any"
									}
								}
							}
						}
					}
				}
			}
		},
		"/admin/delete-wing": {
			"post": {
				"description": "",
				"parameters": [
					{
						"name": "x-access-token",
						"in": "header",
						"schema": {
							"type": "string"
						}
					},
					{
						"name": "token",
						"in": "query",
						"schema": {
							"type": "string"
						}
					}
				],
				"responses": {
					"400": {
						"description": "Bad Request"
					}
				},
				"requestBody": {
					"content": {
						"application/json": {
							"schema": {
								"type": "object",
								"properties": {
									"token": {
										"example": "any"
									}
								}
							}
						}
					}
				}
			}
		},
		"/admin/create-wing": {
			"post": {
				"description": "",
				"parameters": [
					{
						"name": "x-access-token",
						"in": "header",
						"schema": {
							"type": "string"
						}
					},
					{
						"name": "token",
						"in": "query",
						"schema": {
							"type": "string"
						}
					}
				],
				"responses": {
					"400": {
						"description": "Bad Request"
					}
				},
				"requestBody": {
					"content": {
						"application/json": {
							"schema": {
								"type": "object",
								"properties": {
									"token": {
										"example": "any"
									}
								}
							}
						}
					}
				}
			}
		},
		"/admin/create-desk": {
			"post": {
				"description": "",
				"parameters": [
					{
						"name": "x-access-token",
						"in": "header",
						"schema": {
							"type": "string"
						}
					},
					{
						"name": "token",
						"in": "query",
						"schema": {
							"type": "string"
						}
					}
				],
				"responses": {
					"400": {
						"description": "Bad Request"
					}
				},
				"requestBody": {
					"content": {
						"application/json": {
							"schema": {
								"type": "object",
								"properties": {
									"token": {
										"example": "any"
									}
								}
							}
						}
					}
				}
			}
		},
		"/admin/all-desks/{location}/{floor}/{wing}": {
			"get": {
				"description": "",
				"parameters": [
					{
						"name": "location",
						"in": "path",
						"required": true,
						"schema": {
							"type": "string"
						}
					},
					{
						"name": "floor",
						"in": "path",
						"required": true,
						"schema": {
							"type": "string"
						}
					},
					{
						"name": "wing",
						"in": "path",
						"required": true,
						"schema": {
							"type": "string"
						}
					},
					{
						"name": "x-access-token",
						"in": "header",
						"schema": {
							"type": "string"
						}
					},
					{
						"name": "token",
						"in": "query",
						"schema": {
							"type": "string"
						}
					}
				],
				"responses": {
					"400": {
						"description": "Bad Request"
					}
				}
			}
		},
		"/admin/delete-desk": {
			"post": {
				"description": "",
				"parameters": [
					{
						"name": "x-access-token",
						"in": "header",
						"schema": {
							"type": "string"
						}
					},
					{
						"name": "token",
						"in": "query",
						"schema": {
							"type": "string"
						}
					}
				],
				"responses": {
					"400": {
						"description": "Bad Request"
					}
				},
				"requestBody": {
					"content": {
						"application/json": {
							"schema": {
								"type": "object",
								"properties": {
									"token": {
										"example": "any"
									}
								}
							}
						}
					}
				}
			}
		},
		"/admin/update-desk": {
			"post": {
				"description": "",
				"parameters": [
					{
						"name": "x-access-token",
						"in": "header",
						"schema": {
							"type": "string"
						}
					},
					{
						"name": "token",
						"in": "query",
						"schema": {
							"type": "string"
						}
					}
				],
				"responses": {
					"400": {
						"description": "Bad Request"
					}
				},
				"requestBody": {
					"content": {
						"application/json": {
							"schema": {
								"type": "object",
								"properties": {
									"token": {
										"example": "any"
									}
								}
							}
						}
					}
				}
			}
		},
		"/admin/create-request": {
			"post": {
				"description": "",
				"parameters": [
					{
						"name": "x-access-token",
						"in": "header",
						"schema": {
							"type": "string"
						}
					},
					{
						"name": "token",
						"in": "query",
						"schema": {
							"type": "string"
						}
					}
				],
				"responses": {
					"400": {
						"description": "Bad Request"
					}
				},
				"requestBody": {
					"content": {
						"application/json": {
							"schema": {
								"type": "object",
								"properties": {
									"token": {
										"example": "any"
									}
								}
							}
						}
					}
				}
			}
		},
		"/admin/update-request": {
			"post": {
				"description": "",
				"parameters": [
					{
						"name": "x-access-token",
						"in": "header",
						"schema": {
							"type": "string"
						}
					},
					{
						"name": "token",
						"in": "query",
						"schema": {
							"type": "string"
						}
					}
				],
				"responses": {
					"400": {
						"description": "Bad Request"
					}
				},
				"requestBody": {
					"content": {
						"application/json": {
							"schema": {
								"type": "object",
								"properties": {
									"token": {
										"example": "any"
									}
								}
							}
						}
					}
				}
			}
		},
		"/admin/desk-book-request": {
			"post": {
				"description": "",
				"parameters": [
					{
						"name": "x-access-token",
						"in": "header",
						"schema": {
							"type": "string"
						}
					},
					{
						"name": "token",
						"in": "query",
						"schema": {
							"type": "string"
						}
					}
				],
				"responses": {
					"400": {
						"description": "Bad Request"
					}
				},
				"requestBody": {
					"content": {
						"application/json": {
							"schema": {
								"type": "object",
								"properties": {
									"token": {
										"example": "any"
									}
								}
							}
						}
					}
				}
			}
		},
		"/admin/all-deskrequest": {
			"get": {
				"description": "",
				"parameters": [
					{
						"name": "x-access-token",
						"in": "header",
						"schema": {
							"type": "string"
						}
					},
					{
						"name": "token",
						"in": "query",
						"schema": {
							"type": "string"
						}
					}
				],
				"responses": {
					"400": {
						"description": "Bad Request"
					}
				}
			}
		},
		"/admin/all-desk-request/{user}": {
			"get": {
				"description": "",
				"parameters": [
					{
						"name": "user",
						"in": "path",
						"required": true,
						"schema": {
							"type": "string"
						}
					},
					{
						"name": "x-access-token",
						"in": "header",
						"schema": {
							"type": "string"
						}
					},
					{
						"name": "token",
						"in": "query",
						"schema": {
							"type": "string"
						}
					}
				],
				"responses": {
					"400": {
						"description": "Bad Request"
					}
				}
			}
		},
		"/admin/all-department": {
			"get": {
				"description": "",
				"parameters": [
					{
						"name": "x-access-token",
						"in": "header",
						"schema": {
							"type": "string"
						}
					},
					{
						"name": "token",
						"in": "query",
						"schema": {
							"type": "string"
						}
					}
				],
				"responses": {
					"400": {
						"description": "Bad Request"
					}
				}
			}
		},
		"/admin/create-department": {
			"post": {
				"description": "",
				"parameters": [
					{
						"name": "x-access-token",
						"in": "header",
						"schema": {
							"type": "string"
						}
					},
					{
						"name": "token",
						"in": "query",
						"schema": {
							"type": "string"
						}
					}
				],
				"responses": {
					"400": {
						"description": "Bad Request"
					}
				},
				"requestBody": {
					"content": {
						"application/json": {
							"schema": {
								"type": "object",
								"properties": {
									"token": {
										"example": "any"
									}
								}
							}
						}
					}
				}
			}
		},
		"/admin/delete-department": {
			"post": {
				"description": "",
				"parameters": [
					{
						"name": "x-access-token",
						"in": "header",
						"schema": {
							"type": "string"
						}
					},
					{
						"name": "token",
						"in": "query",
						"schema": {
							"type": "string"
						}
					}
				],
				"responses": {
					"400": {
						"description": "Bad Request"
					}
				},
				"requestBody": {
					"content": {
						"application/json": {
							"schema": {
								"type": "object",
								"properties": {
									"token": {
										"example": "any"
									}
								}
							}
						}
					}
				}
			}
		},
		"/admin/update-department": {
			"post": {
				"description": "",
				"parameters": [
					{
						"name": "x-access-token",
						"in": "header",
						"schema": {
							"type": "string"
						}
					},
					{
						"name": "token",
						"in": "query",
						"schema": {
							"type": "string"
						}
					}
				],
				"responses": {
					"400": {
						"description": "Bad Request"
					}
				},
				"requestBody": {
					"content": {
						"application/json": {
							"schema": {
								"type": "object",
								"properties": {
									"token": {
										"example": "any"
									}
								}
							}
						}
					}
				}
			}
		},
		"/admin/all-projects": {
			"get": {
				"description": "",
				"parameters": [
					{
						"name": "x-access-token",
						"in": "header",
						"schema": {
							"type": "string"
						}
					},
					{
						"name": "token",
						"in": "query",
						"schema": {
							"type": "string"
						}
					}
				],
				"responses": {
					"400": {
						"description": "Bad Request"
					}
				}
			}
		},
		"/admin/create-projects": {
			"post": {
				"description": "",
				"parameters": [
					{
						"name": "x-access-token",
						"in": "header",
						"schema": {
							"type": "string"
						}
					},
					{
						"name": "token",
						"in": "query",
						"schema": {
							"type": "string"
						}
					}
				],
				"responses": {
					"400": {
						"description": "Bad Request"
					}
				},
				"requestBody": {
					"content": {
						"application/json": {
							"schema": {
								"type": "object",
								"properties": {
									"token": {
										"example": "any"
									}
								}
							}
						}
					}
				}
			}
		},
		"/admin/update-project": {
			"post": {
				"description": "",
				"parameters": [
					{
						"name": "x-access-token",
						"in": "header",
						"schema": {
							"type": "string"
						}
					},
					{
						"name": "token",
						"in": "query",
						"schema": {
							"type": "string"
						}
					}
				],
				"responses": {
					"400": {
						"description": "Bad Request"
					}
				},
				"requestBody": {
					"content": {
						"application/json": {
							"schema": {
								"type": "object",
								"properties": {
									"token": {
										"example": "any"
									}
								}
							}
						}
					}
				}
			}
		},
		"/admin/delete-project": {
			"post": {
				"description": "",
				"parameters": [
					{
						"name": "x-access-token",
						"in": "header",
						"schema": {
							"type": "string"
						}
					},
					{
						"name": "token",
						"in": "query",
						"schema": {
							"type": "string"
						}
					}
				],
				"responses": {
					"400": {
						"description": "Bad Request"
					}
				},
				"requestBody": {
					"content": {
						"application/json": {
							"schema": {
								"type": "object",
								"properties": {
									"token": {
										"example": "any"
									}
								}
							}
						}
					}
				}
			}
		},
		"/admin/all-designation": {
			"get": {
				"description": "",
				"parameters": [
					{
						"name": "x-access-token",
						"in": "header",
						"schema": {
							"type": "string"
						}
					},
					{
						"name": "token",
						"in": "query",
						"schema": {
							"type": "string"
						}
					}
				],
				"responses": {
					"400": {
						"description": "Bad Request"
					}
				}
			}
		},
		"/admin/create-designation": {
			"post": {
				"description": "",
				"parameters": [
					{
						"name": "x-access-token",
						"in": "header",
						"schema": {
							"type": "string"
						}
					},
					{
						"name": "token",
						"in": "query",
						"schema": {
							"type": "string"
						}
					}
				],
				"responses": {
					"400": {
						"description": "Bad Request"
					}
				},
				"requestBody": {
					"content": {
						"application/json": {
							"schema": {
								"type": "object",
								"properties": {
									"token": {
										"example": "any"
									}
								}
							}
						}
					}
				}
			}
		},
		"/admin/delete-designation": {
			"post": {
				"description": "",
				"parameters": [
					{
						"name": "x-access-token",
						"in": "header",
						"schema": {
							"type": "string"
						}
					},
					{
						"name": "token",
						"in": "query",
						"schema": {
							"type": "string"
						}
					}
				],
				"responses": {
					"400": {
						"description": "Bad Request"
					}
				},
				"requestBody": {
					"content": {
						"application/json": {
							"schema": {
								"type": "object",
								"properties": {
									"token": {
										"example": "any"
									}
								}
							}
						}
					}
				}
			}
		},
		"/admin/update-designation": {
			"post": {
				"description": "",
				"parameters": [
					{
						"name": "x-access-token",
						"in": "header",
						"schema": {
							"type": "string"
						}
					},
					{
						"name": "token",
						"in": "query",
						"schema": {
							"type": "string"
						}
					}
				],
				"responses": {
					"400": {
						"description": "Bad Request"
					}
				},
				"requestBody": {
					"content": {
						"application/json": {
							"schema": {
								"type": "object",
								"properties": {
									"token": {
										"example": "any"
									}
								}
							}
						}
					}
				}
			}
		},
		"/admin/update-desk-index": {
			"post": {
				"description": "",
				"parameters": [
					{
						"name": "x-access-token",
						"in": "header",
						"schema": {
							"type": "string"
						}
					},
					{
						"name": "token",
						"in": "query",
						"schema": {
							"type": "string"
						}
					}
				],
				"responses": {
					"400": {
						"description": "Bad Request"
					}
				},
				"requestBody": {
					"content": {
						"application/json": {
							"schema": {
								"type": "object",
								"properties": {
									"token": {
										"example": "any"
									}
								}
							}
						}
					}
				}
			}
		},
		"/admin/get-all-notification/{user_id}": {
			"get": {
				"description": "",
				"parameters": [
					{
						"name": "user_id",
						"in": "path",
						"required": true,
						"schema": {
							"type": "string"
						}
					},
					{
						"name": "x-access-token",
						"in": "header",
						"schema": {
							"type": "string"
						}
					},
					{
						"name": "token",
						"in": "query",
						"schema": {
							"type": "string"
						}
					}
				],
				"responses": {
					"400": {
						"description": "Bad Request"
					}
				}
			}
		}
	},
	"components": {
		"securitySchemes": {
			"bearerAuth": {
				"type": "http",
				"scheme": "bearer"
			}
		}
	}
}
